testbenches/cache/waveform.vcd
$date
	Sat Mar 28 03:26:25 2020
$end
$version
	Icarus Verilog
$end
$timescale
	1ns
$end
$scope module cache_testbench $end
$var wire 32 ! m_writedata [31:0] $end
$var wire 1 " m_write $end
$var wire 1 # m_read $end
$var wire 4 $ m_byteenable [3:0] $end
$var wire 5 % m_burstcount [4:0] $end
$var wire 34 & m_address [33:0] $end
$var wire 32 ' m [31:0] $end
$var wire 1 ( k $end
$var wire 1 ) c_wait $end
$var wire 1 * c_store_unknowntype $end
$var wire 1 + c_store_missaligned $end
$var wire 1 , c_pagefault $end
$var wire 1 - c_miss $end
$var wire 1 . c_load_unknowntype $end
$var wire 1 / c_load_missaligned $end
$var wire 32 0 c_load_data [31:0] $end
$var wire 1 1 c_flushing $end
$var wire 1 2 c_flush_done $end
$var wire 1 3 c_done $end
$var wire 1 4 c_accessfault $end
$var wire 1 5 bypassing $end
$var reg 32 6 c_address [31:0] $end
$var reg 1 7 c_execute $end
$var reg 1 8 c_flush $end
$var reg 1 9 c_load $end
$var reg 3 : c_load_type [2:0] $end
$var reg 1 ; c_store $end
$var reg 32 < c_store_data [31:0] $end
$var reg 2 = c_store_type [1:0] $end
$var reg 1 > clk $end
$var reg 1 ? clk_enable $end
$var reg 1 @ csr_matp_mode $end
$var reg 22 A csr_matp_ppn [21:0] $end
$var reg 32 B m_readdata [31:0] $end
$var reg 1 C m_readdatavalid $end
$var reg 2 D m_response [1:0] $end
$var reg 1 E m_waitrequest $end
$var reg 131072 F pma_error [131071:0] $end
$var reg 1 G rst_n $end
$var reg 32 H state [31:0] $end
$scope module cache $end
$var wire 1 I access $end
$var wire 32 J c_address [31:0] $end
$var wire 1 7 c_execute $end
$var wire 1 8 c_flush $end
$var wire 1 9 c_load $end
$var wire 3 K c_load_type [2:0] $end
$var wire 1 ; c_store $end
$var wire 32 L c_store_data [31:0] $end
$var wire 2 M c_store_type [1:0] $end
$var wire 1 > clk $end
$var wire 1 @ csr_matp_mode $end
$var wire 22 N csr_matp_ppn [21:0] $end
$var wire 1 O flush_storage_read $end
$var wire 32 P m_readdata [31:0] $end
$var wire 1 C m_readdatavalid $end
$var wire 2 Q m_response [1:0] $end
$var wire 1 E m_waitrequest $end
$var wire 1 R ptw_complete $end
$var wire 1 G rst_n $end
$var wire 1 S tlb_write $end
$var wire 22 T tlb_ptag_read [21:0] $end
$var wire 1 U tlb_miss $end
$var wire 1 V tlb_done $end
$var wire 8 W tlb_accesstag_read [7:0] $end
$var wire 4 X storegen_mask [3:0] $end
$var wire 32 Y storegen_dataout [31:0] $end
$var wire 4 Z storage_isWayHit [3:0] $end
$var wire 22 [ ptw_resolve_phystag [21:0] $end
$var wire 1 \ ptw_resolve_done $end
$var wire 1 ] ptw_resolve_ack $end
$var wire 8 ^ ptw_resolve_access_bits [7:0] $end
$var wire 1 _ ptw_pagefault $end
$var wire 1 ` ptw_avl_read $end
$var wire 34 a ptw_avl_address [33:0] $end
$var wire 1 b ptw_accessfault $end
$var wire 4 c os_word_counter_next [3:0] $end
$var wire 1 * c_store_unknowntype $end
$var wire 1 + c_store_missaligned $end
$var wire 1 . c_load_unknowntype $end
$var wire 1 / c_load_missaligned $end
$var wire 32 d c_load_data [31:0] $end
$var wire 20 e c_address_vtag [19:0] $end
$var wire 4 f c_address_offset [3:0] $end
$var wire 6 g c_address_lane [5:0] $end
$var wire 2 h c_address_inword_offset [1:0] $end
$var reg 1 i bypass_load_handshaked $end
$var reg 1 4 c_accessfault $end
$var reg 1 3 c_done $end
$var reg 1 2 c_flush_done $end
$var reg 1 1 c_flushing $end
$var reg 1 - c_miss $end
$var reg 1 , c_pagefault $end
$var reg 1 ) c_wait $end
$var reg 2 j current_way [1:0] $end
$var reg 2 k current_way_next [1:0] $end
$var reg 1 l flush_all_initial_done $end
$var reg 1 m flush_initial_done $end
$var reg 34 n m_address [33:0] $end
$var reg 5 o m_burstcount [4:0] $end
$var reg 4 p m_byteenable [3:0] $end
$var reg 1 # m_read $end
$var reg 1 " m_write $end
$var reg 32 q m_writedata [31:0] $end
$var reg 1 r os_active $end
$var reg 2 s os_address_inword_offset [1:0] $end
$var reg 6 t os_address_lane [5:0] $end
$var reg 6 u os_address_lane_next [5:0] $end
$var reg 4 v os_address_offset [3:0] $end
$var reg 20 w os_address_vtag [19:0] $end
$var reg 4 x os_cache_hit [3:0] $end
$var reg 1 y os_cache_hit_any $end
$var reg 2 z os_cache_hit_way [1:0] $end
$var reg 1 { os_current_way_dirty $end
$var reg 1 | os_current_way_valid $end
$var reg 1 } os_load $end
$var reg 3 ~ os_load_type [2:0] $end
$var reg 32 !" os_readdata [31:0] $end
$var reg 1 "" os_store $end
$var reg 32 #" os_store_data [31:0] $end
$var reg 2 $" os_store_type [1:0] $end
$var reg 4 %" os_valid [3:0] $end
$var reg 4 &" os_word_counter [3:0] $end
$var reg 1 '" ptw_resolve_request $end
$var reg 1 (" refill_initial_done $end
$var reg 1 )" refill_waitrequest_handshaked $end
$var reg 4 *" return_state [3:0] $end
$var reg 72 +" return_state_str [71:0] $end
$var reg 1 ," s_bypass $end
$var reg 4 -" state [3:0] $end
$var reg 72 ." state_str [71:0] $end
$var integer 32 /" c [31:0] $end
$var integer 32 0" i [31:0] $end
$var integer 32 1" o [31:0] $end
$var integer 32 2" p [31:0] $end
$var integer 32 3" t [31:0] $end
$var integer 32 4" way_counter [31:0] $end
$scope begin datastorage_for[0] $end
$scope module datastorage $end
$var wire 1 > clk $end
$var wire 1 5" read $end
$var wire 10 6" readaddress [9:0] $end
$var wire 32 7" readdata [31:0] $end
$var wire 1 8" write $end
$var wire 10 9" writeaddress [9:0] $end
$var wire 32 :" writedata [31:0] $end
$var reg 10 ;" readaddress_r [9:0] $end
$scope begin $unm_blk_214 $end
$var integer 32 <" i [31:0] $end
$upscope $end
$upscope $end
$upscope $end
$scope begin datastorage_for[1] $end
$scope module datastorage $end
$var wire 1 > clk $end
$var wire 1 =" read $end
$var wire 10 >" readaddress [9:0] $end
$var wire 32 ?" readdata [31:0] $end
$var wire 1 @" write $end
$var wire 10 A" writeaddress [9:0] $end
$var wire 32 B" writedata [31:0] $end
$var reg 10 C" readaddress_r [9:0] $end
$scope begin $unm_blk_214 $end
$var integer 32 D" i [31:0] $end
$upscope $end
$upscope $end
$upscope $end
$scope begin datastorage_for[2] $end
$scope module datastorage $end
$var wire 1 > clk $end
$var wire 1 E" read $end
$var wire 10 F" readaddress [9:0] $end
$var wire 32 G" readdata [31:0] $end
$var wire 1 H" write $end
$var wire 10 I" writeaddress [9:0] $end
$var wire 32 J" writedata [31:0] $end
$var reg 10 K" readaddress_r [9:0] $end
$scope begin $unm_blk_214 $end
$var integer 32 L" i [31:0] $end
$upscope $end
$upscope $end
$upscope $end
$scope begin datastorage_for[3] $end
$scope module datastorage $end
$var wire 1 > clk $end
$var wire 1 M" read $end
$var wire 10 N" readaddress [9:0] $end
$var wire 32 O" readdata [31:0] $end
$var wire 1 P" write $end
$var wire 10 Q" writeaddress [9:0] $end
$var wire 32 R" writedata [31:0] $end
$var reg 10 S" readaddress_r [9:0] $end
$scope begin $unm_blk_214 $end
$var integer 32 T" i [31:0] $end
$upscope $end
$upscope $end
$upscope $end
$scope begin ptagstorage_for[0] $end
$scope module ptag_storage $end
$var wire 1 > clk $end
$var wire 1 U" read $end
$var wire 6 V" readaddress [5:0] $end
$var wire 22 W" readdata [21:0] $end
$var wire 1 X" write $end
$var wire 6 Y" writeaddress [5:0] $end
$var wire 22 Z" writedata [21:0] $end
$var reg 6 [" readaddress_r [5:0] $end
$scope begin $unm_blk_214 $end
$var integer 32 \" i [31:0] $end
$upscope $end
$upscope $end
$upscope $end
$scope begin ptagstorage_for[1] $end
$scope module ptag_storage $end
$var wire 1 > clk $end
$var wire 1 ]" read $end
$var wire 6 ^" readaddress [5:0] $end
$var wire 22 _" readdata [21:0] $end
$var wire 1 `" write $end
$var wire 6 a" writeaddress [5:0] $end
$var wire 22 b" writedata [21:0] $end
$var reg 6 c" readaddress_r [5:0] $end
$scope begin $unm_blk_214 $end
$var integer 32 d" i [31:0] $end
$upscope $end
$upscope $end
$upscope $end
$scope begin ptagstorage_for[2] $end
$scope module ptag_storage $end
$var wire 1 > clk $end
$var wire 1 e" read $end
$var wire 6 f" readaddress [5:0] $end
$var wire 22 g" readdata [21:0] $end
$var wire 1 h" write $end
$var wire 6 i" writeaddress [5:0] $end
$var wire 22 j" writedata [21:0] $end
$var reg 6 k" readaddress_r [5:0] $end
$scope begin $unm_blk_214 $end
$var integer 32 l" i [31:0] $end
$upscope $end
$upscope $end
$upscope $end
$scope begin ptagstorage_for[3] $end
$scope module ptag_storage $end
$var wire 1 > clk $end
$var wire 1 m" read $end
$var wire 6 n" readaddress [5:0] $end
$var wire 22 o" readdata [21:0] $end
$var wire 1 p" write $end
$var wire 6 q" writeaddress [5:0] $end
$var wire 22 r" writedata [21:0] $end
$var reg 6 s" readaddress_r [5:0] $end
$scope begin $unm_blk_214 $end
$var integer 32 t" i [31:0] $end
$upscope $end
$upscope $end
$upscope $end
$scope begin storage_isWayHit_for_block[0] $end
$upscope $end
$scope begin storage_isWayHit_for_block[1] $end
$upscope $end
$scope begin storage_isWayHit_for_block[2] $end
$upscope $end
$scope begin storage_isWayHit_for_block[3] $end
$upscope $end
$scope module loadgen $end
$var wire 32 u" LoadGenDataIn [31:0] $end
$var wire 2 v" inwordOffset [1:0] $end
$var wire 3 w" loadType [2:0] $end
$var wire 32 x" rshift [31:0] $end
$var wire 5 y" roffset [4:0] $end
$var reg 32 z" LoadGenDataOut [31:0] $end
$var reg 1 / LoadMissaligned $end
$var reg 1 . LoadUnknownType $end
$upscope $end
$scope module ptw $end
$var wire 1 ` avl_read $end
$var wire 32 {" avl_readdata [31:0] $end
$var wire 1 C avl_readdatavalid $end
$var wire 2 |" avl_response [1:0] $end
$var wire 1 E avl_waitrequest $end
$var wire 1 > clk $end
$var wire 1 @ matp_mode $end
$var wire 22 }" matp_ppn [21:0] $end
$var wire 1 ~" pte_invalid $end
$var wire 1 !# pte_is_leaf $end
$var wire 1 "# pte_missaligned $end
$var wire 1 ] resolve_ack $end
$var wire 1 '" resolve_request $end
$var wire 1 G rst_n $end
$var wire 20 ## virtual_address [19:0] $end
$var wire 25 $# state_debug_output [24:0] $end
$var wire 22 %# resolve_physical_address [21:0] $end
$var wire 8 &# resolve_access_bits [7:0] $end
$var wire 1 '# pte_write $end
$var wire 1 (# pte_valid $end
$var wire 1 )# pte_read $end
$var wire 10 *# pte_ppn1 [9:0] $end
$var wire 12 +# pte_ppn0 [11:0] $end
$var wire 1 ,# pte_pointer $end
$var wire 1 -# pte_execute $end
$var wire 1 .# pma_error $end
$var wire 34 /# avl_address [33:0] $end
$var reg 1 0# current_level $end
$var reg 22 1# current_table_base [21:0] $end
$var reg 1 2# read_issued $end
$var reg 1 b resolve_accessfault $end
$var reg 1 \ resolve_done $end
$var reg 1 _ resolve_pagefault $end
$var reg 20 3# saved_virtual_address [19:0] $end
$var reg 1 4# state $end
$scope task debug_write_all $end
$upscope $end
$scope task debug_write_pte $end
$upscope $end
$scope task debug_write_request $end
$upscope $end
$scope task debug_write_state $end
$upscope $end
$upscope $end
$scope module storegen $end
$var wire 2 5# inwordOffset [1:0] $end
$var wire 32 6# storegenDataIn [31:0] $end
$var wire 1 + storegenMissAligned $end
$var wire 2 7# storegenType [1:0] $end
$var wire 5 8# woffset [4:0] $end
$var wire 1 * storegenUnknownType $end
$var wire 32 9# storegenDataOut [31:0] $end
$var wire 4 :# storegenDataMask [3:0] $end
$upscope $end
$scope module tlb $end
$var wire 8 ;# accesstag_w [7:0] $end
$var wire 1 > clk $end
$var wire 1 @ enable $end
$var wire 1 <# invalidate $end
$var wire 22 =# phys_w [21:0] $end
$var wire 1 I resolve $end
$var wire 1 G rst_n $end
$var wire 20 ># virtual_address [19:0] $end
$var wire 20 ?# virtual_address_w [19:0] $end
$var wire 1 S write $end
$var wire 4 @# tlbway_miss [3:0] $end
$var wire 4 A# tlbway_done [3:0] $end
$var reg 8 B# accesstag_r [7:0] $end
$var reg 1 V done $end
$var reg 2 C# hit_way [1:0] $end
$var reg 1 U miss $end
$var reg 22 D# phys_r [21:0] $end
$var reg 2 E# tlb_current_way [1:0] $end
$var integer 32 F# i [31:0] $end
$scope begin tlbway[0] $end
$scope module tlbway $end
$var wire 8 G# accesstag_w [7:0] $end
$var wire 1 > clk $end
$var wire 1 @ enable $end
$var wire 1 <# invalidate $end
$var wire 22 H# phys_w [21:0] $end
$var wire 1 I resolve $end
$var wire 1 G rst_n $end
$var wire 20 I# virtual_address [19:0] $end
$var wire 20 J# virtual_address_w [19:0] $end
$var wire 1 K# write $end
$var wire 16 L# virt_tag_w [15:0] $end
$var wire 16 M# virt_tag [15:0] $end
$var wire 4 N# set_index_w [3:0] $end
$var wire 4 O# set_index [3:0] $end
$var reg 1 P# access_r $end
$var reg 8 Q# accesstag_r [7:0] $end
$var reg 1 R# done $end
$var reg 1 S# enable_r $end
$var reg 1 T# miss $end
$var reg 22 U# phys_r [21:0] $end
$var reg 4 V# set_index_r [3:0] $end
$var reg 16 W# valid [15:0] $end
$var reg 16 X# virt_tag_r [15:0] $end
$var integer 32 Y# i [31:0] $end
$upscope $end
$upscope $end
$scope begin tlbway[1] $end
$scope module tlbway $end
$var wire 8 Z# accesstag_w [7:0] $end
$var wire 1 > clk $end
$var wire 1 @ enable $end
$var wire 1 <# invalidate $end
$var wire 22 [# phys_w [21:0] $end
$var wire 1 I resolve $end
$var wire 1 G rst_n $end
$var wire 20 \# virtual_address [19:0] $end
$var wire 20 ]# virtual_address_w [19:0] $end
$var wire 1 ^# write $end
$var wire 16 _# virt_tag_w [15:0] $end
$var wire 16 `# virt_tag [15:0] $end
$var wire 4 a# set_index_w [3:0] $end
$var wire 4 b# set_index [3:0] $end
$var reg 1 c# access_r $end
$var reg 8 d# accesstag_r [7:0] $end
$var reg 1 e# done $end
$var reg 1 f# enable_r $end
$var reg 1 g# miss $end
$var reg 22 h# phys_r [21:0] $end
$var reg 4 i# set_index_r [3:0] $end
$var reg 16 j# valid [15:0] $end
$var reg 16 k# virt_tag_r [15:0] $end
$var integer 32 l# i [31:0] $end
$upscope $end
$upscope $end
$scope begin tlbway[2] $end
$scope module tlbway $end
$var wire 8 m# accesstag_w [7:0] $end
$var wire 1 > clk $end
$var wire 1 @ enable $end
$var wire 1 <# invalidate $end
$var wire 22 n# phys_w [21:0] $end
$var wire 1 I resolve $end
$var wire 1 G rst_n $end
$var wire 20 o# virtual_address [19:0] $end
$var wire 20 p# virtual_address_w [19:0] $end
$var wire 1 q# write $end
$var wire 16 r# virt_tag_w [15:0] $end
$var wire 16 s# virt_tag [15:0] $end
$var wire 4 t# set_index_w [3:0] $end
$var wire 4 u# set_index [3:0] $end
$var reg 1 v# access_r $end
$var reg 8 w# accesstag_r [7:0] $end
$var reg 1 x# done $end
$var reg 1 y# enable_r $end
$var reg 1 z# miss $end
$var reg 22 {# phys_r [21:0] $end
$var reg 4 |# set_index_r [3:0] $end
$var reg 16 }# valid [15:0] $end
$var reg 16 ~# virt_tag_r [15:0] $end
$var integer 32 !$ i [31:0] $end
$upscope $end
$upscope $end
$scope begin tlbway[3] $end
$scope module tlbway $end
$var wire 8 "$ accesstag_w [7:0] $end
$var wire 1 > clk $end
$var wire 1 @ enable $end
$var wire 1 <# invalidate $end
$var wire 22 #$ phys_w [21:0] $end
$var wire 1 I resolve $end
$var wire 1 G rst_n $end
$var wire 20 $$ virtual_address [19:0] $end
$var wire 20 %$ virtual_address_w [19:0] $end
$var wire 1 &$ write $end
$var wire 16 '$ virt_tag_w [15:0] $end
$var wire 16 ($ virt_tag [15:0] $end
$var wire 4 )$ set_index_w [3:0] $end
$var wire 4 *$ set_index [3:0] $end
$var reg 1 +$ access_r $end
$var reg 8 ,$ accesstag_r [7:0] $end
$var reg 1 -$ done $end
$var reg 1 .$ enable_r $end
$var reg 1 /$ miss $end
$var reg 22 0$ phys_r [21:0] $end
$var reg 4 1$ set_index_r [3:0] $end
$var reg 16 2$ valid [15:0] $end
$var reg 16 3$ virt_tag_r [15:0] $end
$var integer 32 4$ i [31:0] $end
$upscope $end
$upscope $end
$upscope $end
$scope begin $unm_blk_62 $end
$var integer 32 5$ way_idx [31:0] $end
$upscope $end
$scope begin storage_read_port_for $end
$upscope $end
$scope begin storage_write_port_for $end
$upscope $end
$scope task debug_print_request $end
$upscope $end
$scope task debug_print_way_selector $end
$scope begin $unm_blk_87 $end
$var integer 32 6$ way_idx [31:0] $end
$upscope $end
$upscope $end
$upscope $end
$upscope $end
$enddefinitions $end
#0
$dumpvars
bx 6$
b11111111111111111111111111111111 5$
bx 4$
bx 3$
bx 2$
bx 1$
b0 0$
0/$
x.$
0-$
b11011111 ,$
x+$
b0 *$
bx )$
b0 ($
bx '$
0&$
bx %$
b0 $$
b0xxxxxxxxxx #$
b0 "$
bx !$
bx ~#
bx }#
bx |#
b0 {#
0z#
xy#
0x#
b11011111 w#
xv#
b0 u#
bx t#
b0 s#
bx r#
0q#
bx p#
b0 o#
b0xxxxxxxxxx n#
b0 m#
bx l#
bx k#
bx j#
bx i#
b0 h#
0g#
xf#
0e#
b11011111 d#
xc#
b0 b#
bx a#
b0 `#
bx _#
0^#
bx ]#
b0 \#
b0xxxxxxxxxx [#
b0 Z#
bx Y#
bx X#
bx W#
bx V#
b0 U#
0T#
xS#
0R#
b11011111 Q#
xP#
b0 O#
bx N#
b0 M#
bx L#
0K#
bx J#
b0 I#
b0xxxxxxxxxx H#
b0 G#
b11111111111111111111111111111111 F#
bx E#
b0 D#
b0 C#
b11011111 B#
b0 A#
b0 @#
bx ?#
b0 >#
b0xxxxxxxxxx =#
x<#
b0 ;#
bx :#
bx 9#
bx000 8#
bx 7#
bx 6#
bx 5#
x4#
bx 3#
x2#
bx 1#
x0#
bx00 /#
1.#
0-#
0,#
b0 +#
b0 *#
0)#
0(#
0'#
b0 &#
b0xxxxxxxxxx %#
bx $#
bx ##
0"#
0!#
1~"
b1 }"
b11 |"
b0 {"
bx z"
bx000 y"
bx x"
bx w"
bx v"
b0 u"
b1000000 t"
bx s"
b0 r"
bx q"
0p"
bx o"
b0 n"
0m"
b1000000 l"
bx k"
b0 j"
bx i"
0h"
bx g"
b0 f"
0e"
b1000000 d"
bx c"
b0 b"
bx a"
0`"
bx _"
b0 ^"
0]"
b1000000 \"
bx ["
b0 Z"
bx Y"
0X"
bx W"
b0 V"
0U"
b10000000000 T"
bx S"
bx R"
bx Q"
0P"
bx O"
b0 N"
0M"
b10000000000 L"
bx K"
bx J"
bx I"
0H"
bx G"
b0 F"
0E"
b10000000000 D"
bx C"
bx B"
bx A"
0@"
bx ?"
b0 >"
0="
b10000000000 <"
bx ;"
bx :"
bx 9"
08"
bx 7"
b0 6"
05"
bx 4"
b100 3"
bx 2"
b100 1"
bx 0"
b100 /"
bx ."
bx -"
0,"
bx +"
bx *"
x)"
x("
x'"
bx &"
bx %"
bx $"
bx #"
x""
b0 !"
bx ~
x}
x|
x{
b0 z
0y
bx x
bx w
bx v
bx u
bx t
bx s
xr
bx q
b1111 p
b10000 o
bx00 n
xm
xl
bx k
bx j
xi
b0 h
b0 g
b0 f
b0 e
bx d
bx c
0b
bx00 a
x`
0_
b0 ^
x]
0\
b0xxxxxxxxxx [
b1 Z
bx Y
bx X
b11011111 W
0V
0U
b0 T
0S
0R
b11 Q
b0 P
xO
b1 N
b10 M
b0 L
b10 K
b0 J
0I
b0 H
1G
b0 F
xE
b11 D
0C
b0 B
b1 A
0@
1?
0>
b10 =
b0 <
0;
b10 :
09
08
07
b0 6
x5
04
03
02
x1
bx 0
x/
x.
0-
0,
x+
x*
1)
x(
bx0xxxxxxxxxxxxxxxxxxxxxxxxxxxxx '
bx00 &
b10000 %
b1111 $
0#
0"
bx !
$end
#1
b10000000000000000000 r"
b10000000000000000000 j"
b10000000000000000000 b"
b10000000000000000000 Z"
b11111111111111111111111111111111 5$
b0 C#
b11111111111111111111111111111111 F#
b10000000000000000000 T
b10000000000000000000 D#
b10000000000000000000 U#
b1000000000000000 M#
b10000000000000000000 h#
b1000000000000000 `#
b10000000000000000000 {#
b1000000000000000 s#
b10000000000000000000 0$
b1000000000000000 ($
b10000000000000000000 e
b10000000000000000000 >#
b10000000000000000000 I#
b10000000000000000000 \#
b10000000000000000000 o#
b10000000000000000000 $$
b100 /"
1)
b10000000000000000000000000000000 6
b10000000000000000000000000000000 J
19
1E
b100 H
0P#
0c#
0v#
0+$
b100 2"
1>
#2
b1001001010001000100110001000101 ."
b0xxxxxxxxxx '
1m"
1e"
1]"
1U"
1M"
1E"
1="
15"
1I
19
b10000000000000000000000000000000 6
b10000000000000000000000000000000 J
15
0`
0O
0<#
b0 k
0)
bx $
bx p
b1 %
b1 o
b10000000000000000000xxxxxxxxxx00 &
b10000000000000000000xxxxxxxxxx00 n
b100 1"
b100 /"
b100 3"
1]
0r
b0 -"
0i
0)"
0("
0m
0l
b1 c
b0 &"
b0 j
b0 2$
b0 }#
b0 j#
b0 W#
bx0 $#
04#
0>
b1000000 0"
b0 E#
b10000 4$
b10000 !$
b10000 l#
b10000 Y#
0G
#3
05
0M"
0E"
0="
05"
b100 3"
0m"
0e"
0]"
0U"
b100 1"
b0 r"
b0 j"
b0 b"
b0 Z"
0I
b0 C#
b11111111111111111111111111111111 F#
b0 T
b0 D#
b0 U#
b0 M#
b0 h#
b0 `#
b0 {#
b0 s#
b0 0$
b0 ($
b0 e
b0 >#
b0 I#
b0 \#
b0 o#
b0 $$
09
b0 6
b0 J
b0x0000000x0000000x0000000x R"
b0x0000000x0000000x0000000x J"
b0x0000000x0000000x0000000x B"
b0x0000000x0000000x0000000x :"
b100 /"
bx x
b11111111111111111111111111111111 5$
bx $
bx p
bx !
bx q
b1 %
b1 o
b0xxxxxxxxxx00 &
b0xxxxxxxxxx00 n
b0 H
b0 o"
b0 s"
b0 g"
b0 k"
b0 _"
b0 c"
b0 W"
b0 ["
b0 O"
b0 S"
b0 G"
b0 K"
b0 ?"
b0 C"
b0 7"
b0 ;"
b100 2"
b10000 Y#
b10000 l#
b10000 !$
b10000 4$
b1000000 0"
1>
#4
0>
1G
#5
b1001001010001000100110001000101 +"
15
b10000000000000000000 r"
b10000000000000000000 j"
b10000000000000000000 b"
b10000000000000000000 Z"
b0 x
b11111111111111111111111111111111 5$
1M"
1E"
1="
15"
b100 3"
1m"
1e"
1]"
1U"
b100 1"
b0 C#
b11111111111111111111111111111111 F#
b10000000000000000000 T
b10000000000000000000 D#
1I
b10000000000000000000 U#
b1000000000000000 M#
b10000000000000000000 h#
b1000000000000000 `#
b10000000000000000000 {#
b1000000000000000 s#
b10000000000000000000 0$
b1000000000000000 ($
b10000000000000000000 e
b10000000000000000000 >#
b10000000000000000000 I#
b10000000000000000000 \#
b10000000000000000000 o#
b10000000000000000000 $$
b10000000000000000000000000000000 6
b10000000000000000000000000000000 J
19
bx $
bx p
bx !
bx q
b1 %
b1 o
b10000000000000000000xxxxxxxxxx00 &
b10000000000000000000xxxxxxxxxx00 n
b100 H
b0 *"
b1xxxxxxxxxx00 a
b1xxxxxxxxxx00 /#
b1 1#
10#
b1100 $#
02#
b100 2"
1>
#6
0>
#7
0(
b0 '
0M"
0E"
0="
05"
0m"
0e"
0]"
0U"
b0 R"
b0 J"
b0 B"
b0 :"
0+
0I
19
b10000000000000000000000000000000 6
b10000000000000000000000000000000 J
b100 3"
b0 C#
b11111111111111111111111111111111 F#
0U
1V
b1111 X
b1111 :#
b0 0
b0 d
b0 z"
0/
0.
b0 x"
b0 y"
b0 Y
b0 9#
b0 8#
b100 1"
1#
b1111 $
b1111 p
b0 !
b0 q
b1 %
b1 o
b10000000000000000000000000000000 &
b10000000000000000000000000000000 n
b0 N#
b1000000000000000 L#
b0 a#
b1000000000000000 _#
b0 t#
b1000000000000000 r#
b0 )$
b1000000000000000 '$
b11111111111111111111111111111111 5$
1)
1,"
b1 u
b100 /"
1R#
1e#
1x#
b1111 A#
1-$
b0 #"
b0 6#
0*
b10 $"
b10 7#
0""
b10 ~
b10 w"
1}
b0 s
b0 v"
b0 5#
b0 v
b0 9"
b0 A"
b0 I"
b0 Q"
b0 t
b0 Y"
b0 a"
b0 i"
b0 q"
b10000000000000000000 w
b10000000000000000000 ##
b10000000000000000000 ?#
b10000000000000000000 J#
b10000000000000000000 ]#
b10000000000000000000 p#
b10000000000000000000 %$
0|
b0 %"
1r
b1000000000000000 X#
0S#
b0 V#
1P#
b1000000000000000 k#
0f#
b0 i#
1c#
b1000000000000000 ~#
0y#
b0 |#
1v#
b1000000000000000 3$
0.$
b0 1$
1+$
b100 2"
1>
#8
0>
#9
0M"
0E"
0="
05"
b100 3"
0m"
0e"
0]"
0U"
b100 1"
0I
09
b10000000000000000000000000000000 6
b10000000000000000000000000000000 J
b10111110101011111101111010101101 0
b10111110101011111101111010101101 d
b10111110101011111101111010101101 z"
1!#
1"#
b0 C#
b11111111111111111111111111111111 F#
0V
1#
b1 %
b1 o
b10000000000000000000000000000000 &
b10000000000000000000000000000000 n
13
1,"
0)
b10111110101011111101111010101101 x"
b10111110101011111101111010101101 u"
1(#
1'#
1-#
b101111101010 +#
b1111110111 *#
b1011111010100000000000 [
b1011111010100000000000 %#
b1011111010100000000000 =#
b1011111010100000000000 H#
b1011111010100000000000 [#
b1011111010100000000000 n#
b1011111010100000000000 #$
b10101101 ^
b10101101 &#
b10101101 ;#
b10101101 G#
b10101101 Z#
b10101101 m#
b10101101 "$
b100 /"
0-$
0x#
0e#
b0 A#
0R#
b1100000000000 a
b1100000000000 /#
0.#
b0 D
b0 Q
b0 |"
0E
1C
b10111110101011111101111010101101 B
b10111110101011111101111010101101 P
b10111110101011111101111010101101 {"
0+$
0v#
0c#
0P#
b10000000000000000000 3#
b100 2"
1>
#10
0>
#11
1M"
1E"
1="
15"
b100 3"
1m"
1e"
1]"
1U"
b100 1"
1I
b0 0
b0 d
b0 z"
b0 x"
b0 u"
b11111111110011000010001000010001 <
b11111111110011000010001000010001 L
1;
b10000000000000000000000000000000 6
b10000000000000000000000000000000 J
0#
b1 %
b1 o
b10000000000000000000000000000000 &
b10000000000000000000000000000000 n
0,"
03
b100 /"
b101 H
1.#
b11 D
b11 Q
b11 |"
0C
1E
0i
0r
b100 2"
1>
#12
0>
#13
0M"
0E"
0="
05"
b100 3"
0m"
0e"
0]"
0U"
b100 1"
b10111110101011111101111010101101 0
b10111110101011111101111010101101 d
b10111110101011111101111010101101 z"
0I
b11111111110011000010001000010001 <
b11111111110011000010001000010001 L
1;
b10000000000000000000000000000000 6
b10000000000000000000000000000000 J
b10111110101011111101111010101101 x"
b10111110101011111101111010101101 u"
b0 C#
b11111111111111111111111111111111 F#
0U
1V
b11111111110011000010001000010001 !
b11111111110011000010001000010001 q
1"
b1 %
b1 o
b10000000000000000000000000000000 &
b10000000000000000000000000000000 n
1)
1,"
b1 R"
b1 J"
b1 B"
b1 :"
b100 /"
1-$
1x#
1e#
b1111 A#
1R#
b11111111110011000010001000010001 Y
b11111111110011000010001000010001 9#
b11111111110011000010001000010001 #"
b11111111110011000010001000010001 6#
1""
0}
1r
1+$
1v#
1c#
1P#
b100 2"
1>
#14
0>
#15
0M"
0E"
0="
05"
b100 3"
0m"
0e"
0]"
0U"
b100 1"
b11111111110011000010001000010001 !
b11111111110011000010001000010001 q
1"
b1 %
b1 o
b10000000000000000000000000000000 &
b10000000000000000000000000000000 n
0I
b11111111110011000010001000010001 <
b11111111110011000010001000010001 L
0;
b10000000000000000000000000000000 6
b10000000000000000000000000000000 J
b0 C#
b11111111111111111111111111111111 F#
0V
b100 /"
13
1,"
0)
0R#
0e#
0x#
b0 A#
0-$
0E
0.#
b0 D
b0 Q
b0 |"
0P#
0c#
0v#
0+$
b100 2"
1>
#16
0>
#17
b0 0
b0 d
b0 z"
b11111111110011000010001000010001 !
b11111111110011000010001000010001 q
0"
b1 %
b1 o
b10000000000000000000000000000000 &
b10000000000000000000000000000000 n
b0 x"
b0 u"
b11111111110011000010001000010001 <
b11111111110011000010001000010001 L
b10000000000000000000000000000000 6
b10000000000000000000000000000000 J
0,"
03
b100 /"
1.#
b11 D
b11 Q
b11 |"
1E
b110 H
0r
b100 2"
1>
#18
0>
#19
05
1M"
1E"
1="
15"
b100 3"
1m"
1e"
1]"
1U"
b100 1"
b0 r"
b0 j"
b0 b"
b0 Z"
b11111111111111111111111111111111 5$
b11111111110011000010001000010001 !
b11111111110011000010001000010001 q
b1 %
b1 o
b0 &
b0 n
1I
b0 C#
b11111111111111111111111111111111 F#
b0 T
b0 D#
b0 U#
b0 M#
b0 h#
b0 `#
b0 {#
b0 s#
b0 0$
b0 ($
b0 e
b0 >#
b0 I#
b0 \#
b0 o#
b0 $$
19
b0 <
b0 L
b0 6
b0 J
b1 H
b100 2"
1>
#20
0>
#21
0M"
0E"
0="
05"
b100 3"
0m"
0e"
0]"
0U"
b100 1"
0I
19
b0 C#
b11111111111111111111111111111111 F#
0U
1V
b0 !
b0 q
b1 %
b1 o
b0 L#
b0 _#
b0 r#
b0 '$
1)
b0 R"
b0 J"
b0 B"
b0 :"
b100 /"
1-$
1x#
1e#
b1111 A#
1R#
b0 Y
b0 9#
b0 #"
b0 6#
0""
1}
b0 w
b0 ##
b0 ?#
b0 J#
b0 ]#
b0 p#
b0 %$
1r
b0 3$
1+$
b0 ~#
1v#
b0 k#
1c#
b0 X#
1P#
b100 2"
1>
#22
0>
